Practice: Example of Partial Analysis • rjavacmecab
…
-Ochasen

output_path <- rjavacmecab::fastestword(
  "みなさまが、焼き餃子だと居間で噂するクラッチを持たせていただきました",
  opt = "-Ochasen",
  encoding = "CP932"
)
file <- readLines(output_path)
readr::read_tsv(
  file,
  col_names = FALSE,
  quote = "",
  n_max = length(file) - 1L ## Suppress warning message that EOS line can't be parsed.
)
#> # A tibble: 24 x 6
#>    X1        X2        X3       X4                                   X5    X6   
#>    <chr>     <chr>     <chr>    <chr>                                <lgl> <lgl>
#>  1 み<82>    み<82>    み<82>   "險伜捷-荳\u0080闊ｬ"                 NA    NA   
#>  2 ﾈ<82>     ﾈ<82>     ﾈ<82>    "蜷崎ｩ<9e>-蝗ｺ譛牙錐隧<9e>-邨<84>郢<94>"~ NA    NA   
#>  3 ｳまが<81> ｳまが<81> ｳまが<81>~ "險伜捷-荳\u0080闊ｬ"                 NA    NA   
#>  4 A         A         A        "蜷崎ｩ<9e>-蝗ｺ譛牙錐隧<9e>-邨<84>郢<94>"~ NA    NA   
#>  5 <8f>      <8f>      <8f>     "險伜捷-荳\u0080闊ｬ"                 NA    NA   
#>  6 ﾄ<82>     ﾄ<82>     ﾄ<82>    "蜷崎ｩ<9e>-蝗ｺ譛牙錐隧<9e>-邨<84>郢<94>"~ NA    NA   
#>  7 ｫ         ｫ         ｫ        "險伜捷-荳\u0080闊ｬ"                 NA    NA   
#>  8 餃<8e>    餃<8e>    餃<8e>   "蜷崎ｩ<9e>-蝗ｺ譛牙錐隧<9e>-邨<84>郢<94>"~ NA    NA   
#>  9 q         q         q        "蜷崎ｩ<9e>-荳\u0080闊ｬ"              NA    NA   
#> 10 だ<82>    だ<82>    だ<82>   "險伜捷-荳\u0080闊ｬ"                 NA    NA   
#> # ... with 14 more rows
…
